﻿<?xml version="1.0" encoding="utf-8"?>
<svg version="1.1" xmlns:xlink="http://www.w3.org/1999/xlink" width="29px" height="25px" xmlns="http://www.w3.org/2000/svg">
  <g transform="matrix(1 0 0 1 -279 -125 )">
    <path d="M 28.2710597826087 11.0558408215661  C 28.7570199275362 11.4302524604193  29 11.9116388532306  29 12.5  C 29 13.0776636713736  28.7570199275362 13.5643988018828  28.2710597826087 13.9602053915276  L 15.445652173913 24.4062901155327  C 14.9334239130435 24.8020967051776  14.3358242753623 25  13.6528532608696 25  C 12.9830163043478 25  12.3919836956522 24.8020967051776  11.8797554347826 24.4062901155327  L 10.4021739130435 23.2028241335045  C 9.90307971014493 22.7963200684638  9.65353260869565 22.3095849379546  9.65353260869565 21.7426187419769  C 9.65353260869565 21.1756525459991  9.90307971014493 20.6889174154899  10.4021739130435 20.2824133504493  L 16.1745923913043 15.5808729139923  L 2.30502717391304 15.5808729139923  C 1.62205615942029 15.5808729139923  1.06714221014493 15.3802952503209  0.640285326086957 14.9791399229782  C 0.213428442028985 14.5779845956354  0 14.0939238339752  0 13.5269576379974  L 0 11.4730423620026  C 0 10.9060761660248  0.213428442028985 10.4220154043646  0.640285326086957 10.0208600770218  C 1.06714221014493 9.61970474967907  1.62205615942029 9.4191270860077  2.30502717391304 9.4191270860077  L 16.1745923913043 9.4191270860077  L 10.4021739130435 4.701540436457  C 9.90307971014493 4.31643132220796  9.65353260869565 3.83504492939666  9.65353260869565 3.25738125802311  C 9.65353260869565 2.67971758664955  9.90307971014493 2.19833119383825  10.4021739130435 1.81322207958922  L 11.8797554347826 0.609756097560976  C 12.3788496376812 0.203252032520324  12.9698822463768 0  13.6528532608696 0  C 14.3489583333333 0  14.9465579710145 0.203252032520324  15.445652173913 0.609756097560976  L 28.2710597826087 11.0558408215661  Z " fill-rule="nonzero" fill="#000000" stroke="none" transform="matrix(1 0 0 1 279 125 )" />
  </g>
</svg>